Our World in Data - Project 1
…
# There are missing value in the variable "region" and "income group" which needs to check.

cost |> filter(is.na(region)) |> distinct(country_name)

# A tibble: 48 × 1
   country_name                                 
   <chr>                                        
 1 Africa Eastern and Southern                  
 2 Africa Western and Central                   
 3 Arab World                                   
 4 Central Europe and the Baltics               
 5 Caribbean small states                       
 6 East Asia & Pacific (excluding high income)  
 7 Early-demographic dividend                   
 8 East Asia & Pacific                          
 9 Europe & Central Asia (excluding high income)
10 Europe & Central Asia                        
# … with 38 more rows
…
